{
  "en": {
    "signIn": "Sign In",
    "dontHaveAccount": "Don't have an account yet ?",
    "registerNow": "Register Now",
    "signUp": "Sign Up",
    "alreadyHaveAccount": "Already have an account ?",
    "signInNow": "Sign In Now"
  },
  "id": {
    "signIn": "Masuk",
    "dontHaveAccount": "Belum punya akun ?",
    "registerNow": "Daftar sekarang",
    "signUp": "Daftar",
    "alreadyHaveAccount": "Sudah punya akun ?",
    "signInNow": "Masuk sekarang"
  }
}